<svg width="43" height="45" viewBox="0 0 43 45" fill="none" xmlns="http://www.w3.org/2000/svg">
<g clip-path="url(#clip0)">
<path fill-rule="evenodd" clip-rule="evenodd" d="M13.9553 19.9765C16.2491 18.3163 19.0573 17.4937 21.8989 17.6494C23.327 17.5796 24.7536 17.8134 26.0819 18.3349C27.4102 18.8563 28.6091 19.6532 29.5972 20.6716C30.3424 21.518 30.7937 22.5768 30.8854 23.6937C30.8854 23.9959 30.8854 24.1773 31.2534 24.1773C31.6215 24.1773 31.6828 23.9959 31.6828 23.3915C31.6451 21.373 31.7373 19.3542 31.9589 17.3472C31.9589 17.0752 31.9589 16.9241 31.4068 16.8939C30.376 16.8204 29.3514 16.6791 28.3397 16.4708C26.3671 16.1068 24.3658 15.9147 22.359 15.8966C18.8076 15.7036 15.277 16.5444 12.2071 18.3143C10.2184 19.5712 8.60134 21.3227 7.51898 23.3921C6.43663 25.4614 5.92727 27.7754 6.0423 30.1007C6.0423 40.4063 13.3419 45.0302 22.6044 45.0302C25.3637 45.1261 28.104 44.5446 30.5787 43.3378C31.0387 43.096 31.0694 43.0053 31.0694 42.008V37.8979C31.0694 36.0242 31.0694 34.5433 31.0694 33.4251C31.0694 32.3069 31.4681 31.4909 32.5109 31.3096C32.8479 31.287 33.1861 31.287 33.523 31.3096C33.7684 31.3096 34.0138 31.3096 34.0138 31.0074C34.0138 30.7051 33.7377 30.6447 33.247 30.6447C32.0202 30.6447 31.1001 30.6447 29.9346 30.6447C28.7691 30.6447 26.4075 30.6447 24.4446 30.6447H24.2912C24.2912 27.0786 24.2912 23.7542 24.2912 23.4217C24.2912 22.6058 24.5059 22.2431 25.334 22.0618H26.2541C26.4995 22.0618 26.6835 22.0618 26.6835 21.8502C26.6835 21.6387 26.4995 21.6387 26.1315 21.6387H22.6657H19.1693C18.3681 21.5495 17.5568 21.6243 16.7863 21.8583C16.0158 22.0923 15.3026 22.4805 14.6914 22.9986C13.9392 23.7481 13.5105 24.7553 13.4952 25.8092C13.4862 26.5693 13.6345 27.3233 13.9311 28.0249C14.2278 28.7266 14.6665 29.3613 15.2206 29.8903C15.7746 30.4192 16.4323 30.8313 17.1534 31.1013C17.8745 31.3713 18.6439 31.4936 19.4146 31.4607H19.936C19.936 31.4607 20.2121 31.4607 20.2121 31.2491C20.2121 31.0376 20.0587 31.0074 19.5373 31.0074C18.6283 30.8328 17.8151 30.3373 17.2504 29.614C16.6857 28.8906 16.4083 27.9891 16.4703 27.0786C16.4374 26.4198 16.546 25.7616 16.7892 25.147C17.0323 24.5325 17.4044 23.9754 17.8811 23.5124C18.5443 22.9207 19.4095 22.597 20.3041 22.6058C20.6086 22.5544 20.9197 22.5544 21.2242 22.6058C21.2242 22.6058 21.4389 22.7871 21.4389 23.0591V32.5487C21.4389 34.7246 21.4389 37.1424 21.4389 38.1699C21.4389 39.1974 21.2242 39.3485 20.4881 39.4392C20.0798 39.4705 19.6696 39.4705 19.2613 39.4392C18.9852 39.4392 18.8626 39.4392 18.8626 39.6205C18.8626 39.8019 19.0773 39.8623 19.3533 39.8623C20.9175 39.8623 22.4203 39.8623 23.0644 39.8623H24.5059V31.1887C24.9754 31.1493 25.4473 31.1493 25.9168 31.1887C27.1436 31.4607 27.481 32.0349 27.5423 33.3042C27.6036 34.5735 27.5423 35.8428 27.5423 37.7166V41.2223C27.588 41.4971 27.5407 41.7792 27.4077 42.025C27.2747 42.2707 27.0633 42.4665 26.8062 42.5822C25.8214 42.9179 24.7797 43.0616 23.7392 43.0053C14.3233 43.0053 10.0908 37.3841 10.0908 29.3754C10.0442 27.5798 10.3992 25.7961 11.1307 24.1508C11.8622 22.5056 12.9522 21.0392 14.3233 19.8556L13.9553 19.9765Z" fill="#241F0C"/>
<path fill-rule="evenodd" clip-rule="evenodd" d="M8.06615 15.8966C12.1326 13.5215 16.7727 12.2683 21.4998 12.2683C26.227 12.2683 30.867 13.5215 34.9335 15.8966C36.0952 13.4529 37.7431 11.2639 39.7794 9.4594C40.7961 8.48422 41.8939 7.59462 43.0612 6.79989C42.7447 6.53728 42.3673 6.35567 41.9625 6.27118C41.5577 6.18668 41.138 6.2019 40.7406 6.31548C40.3432 6.42907 39.9804 6.63752 39.6843 6.92234C39.3883 7.20717 39.1681 7.55957 39.0433 7.94831C38.8939 7.6294 38.6565 7.35828 38.3583 7.16591C38.06 6.97354 37.7129 6.86765 37.3565 6.86033C36.8655 6.86027 36.3942 7.05034 36.0443 7.38956C35.6943 7.72878 35.4936 8.18996 35.4856 8.67363C35.4916 9.08169 35.6326 9.47665 35.8873 9.79848C36.1419 10.1203 36.4963 10.3514 36.8964 10.4567C36.4788 11.0436 35.8799 11.4818 35.1889 11.7059C34.498 11.93 33.7521 11.9281 33.0623 11.7004C32.3726 11.4727 31.776 11.0315 31.3615 10.4425C30.947 9.85345 30.7368 9.14819 30.7623 8.43186C30.7303 8.24176 30.7303 8.04775 30.7623 7.85765C30.9655 7.88883 31.1725 7.88883 31.3757 7.85765C31.7483 7.86362 32.1142 7.75983 32.4265 7.55958C32.7388 7.35933 32.9834 7.07175 33.1287 6.73368C33.2741 6.39562 33.3138 6.02247 33.2426 5.66207C33.1713 5.30167 32.9925 4.97044 32.7291 4.71081C32.4656 4.45118 32.1294 4.275 31.7637 4.20483C31.3979 4.13467 31.0192 4.17371 30.6761 4.31698C30.3331 4.46024 30.0412 4.70119 29.838 5.00894C29.6348 5.31669 29.5294 5.67723 29.5355 6.04435C29.5361 6.30354 29.594 6.55949 29.7052 6.79436C29.8165 7.02924 29.9783 7.23739 30.1796 7.40433C29.8243 7.96821 29.3267 8.43168 28.7354 8.74949C28.1441 9.06731 27.4793 9.2286 26.8058 9.21762C26.2796 9.21764 25.7586 9.11502 25.2729 8.91569C24.7871 8.71637 24.3462 8.42427 23.9756 8.05623C23.6049 7.6882 23.3119 7.25152 23.1133 6.77136C22.9147 6.2912 22.8146 5.77707 22.8186 5.25859C22.7884 4.97731 22.7884 4.69367 22.8186 4.41238V4.59371C22.8126 4.96083 22.9179 5.32137 23.1211 5.62913C23.3244 5.93688 23.6162 6.17783 23.9593 6.32109C24.3024 6.46435 24.6811 6.5034 25.0468 6.43324C25.4126 6.36307 25.7487 6.18688 26.0122 5.92726C26.2757 5.66763 26.4545 5.33639 26.5257 4.97599C26.5969 4.61559 26.5573 4.24245 26.4119 3.90438C26.2665 3.56632 26.022 3.27873 25.7097 3.07848C25.3973 2.87824 25.0315 2.77445 24.6589 2.78042C24.3489 2.77469 24.0426 2.84754 23.7694 2.99197C23.7861 2.79082 23.7861 2.58868 23.7694 2.38754C23.7694 1.73028 23.5045 1.09995 23.0328 0.635203C22.5612 0.170455 21.9215 -0.0906372 21.2545 -0.0906372C20.5874 -0.0906372 19.9478 0.170455 19.4761 0.635203C19.0044 1.09995 18.7395 1.73028 18.7395 2.38754C18.7073 2.58777 18.7073 2.79173 18.7395 2.99197C18.454 2.85092 18.1387 2.77843 17.8194 2.78042C17.4554 2.78042 17.0996 2.88676 16.797 3.08601C16.4944 3.28526 16.2585 3.56846 16.1192 3.8998C15.9799 4.23113 15.9435 4.59573 16.0145 4.94747C16.0855 5.29922 16.2608 5.62231 16.5181 5.87591C16.7755 6.1295 17.1034 6.3022 17.4604 6.37217C17.8173 6.44214 18.1873 6.40623 18.5236 6.26898C18.8598 6.13174 19.1473 5.89932 19.3495 5.60113C19.5517 5.30293 19.6596 4.95235 19.6596 4.59371V4.41238C19.6898 4.69367 19.6898 4.97731 19.6596 5.25859C19.6637 5.77962 19.5625 6.29624 19.3621 6.77839C19.1616 7.26054 18.8658 7.69858 18.4919 8.06702C18.118 8.43545 17.6734 8.72692 17.1841 8.92446C16.6948 9.12199 16.1705 9.22165 15.6418 9.21762C14.974 9.22048 14.3166 9.05546 13.7316 8.73816C13.1466 8.42086 12.6534 7.96178 12.2987 7.40433C12.4999 7.23739 12.6618 7.02924 12.773 6.79436C12.8842 6.55949 12.9422 6.30354 12.9428 6.04435C12.9468 5.8037 12.9022 5.56465 12.8116 5.34115C12.7209 5.11765 12.586 4.91417 12.4147 4.74258C12.2434 4.57098 12.0392 4.4347 11.8139 4.34169C11.5886 4.24868 11.3468 4.2008 11.1025 4.20083C10.8388 4.16736 10.5709 4.18965 10.3167 4.26622C10.0624 4.34279 9.82761 4.47189 9.62796 4.6449C9.42831 4.81791 9.26837 5.03087 9.15881 5.26957C9.04925 5.50828 8.99258 5.76726 8.99258 6.02924C8.99258 6.29123 9.04925 6.5502 9.15881 6.78891C9.26837 7.02762 9.42831 7.24057 9.62796 7.41359C9.82761 7.5866 10.0624 7.71569 10.3167 7.79226C10.5709 7.86883 10.8388 7.89112 11.1025 7.85765C11.3162 7.88626 11.5329 7.88626 11.7466 7.85765C11.7627 8.04872 11.7627 8.24078 11.7466 8.43186C11.7721 9.14819 11.5619 9.85345 11.1474 10.4425C10.7329 11.0315 10.1363 11.4727 9.4466 11.7004C8.75686 11.9281 8.01091 11.93 7.31997 11.7059C6.62903 11.4818 6.03012 11.0436 5.61252 10.4567C6.00952 10.3504 6.35989 10.1181 6.60939 9.79574C6.85889 9.4734 6.99361 9.07902 6.99269 8.67363C6.99269 8.19272 6.79881 7.7315 6.4537 7.39144C6.10859 7.05138 5.64052 6.86033 5.15246 6.86033C4.79606 6.86765 4.44892 6.97354 4.15065 7.16591C3.85238 7.35828 3.615 7.6294 3.46558 7.94831C3.29916 7.45108 2.979 7.01762 2.54999 6.7087C2.12098 6.39978 1.60462 6.23088 1.07329 6.22568C0.48054 6.22712 -0.0935723 6.42993 -0.552246 6.79989C0.615057 7.59462 1.7128 8.48422 2.72949 9.4594C4.74371 11.2696 6.37043 13.4582 7.51408 15.8966H8.06615Z" fill="#241F0C"/>
</g>
<defs>
<clipPath id="clip0">
<rect width="43" height="45" fill="white"/>
</clipPath>
</defs>
</svg>
