{
    "development": {
        "username": "postgres",
        "password": "1996",
        "database": "garson_postgres",
        "host": "localhost",
        "dialect": "postgres"
    },
    "test": {
        "username": "postgres",
        "password": "1996",
        "database": "garson_postgres",
        "host": "localhost",
        "dialect": "postgres"
    },
    "production": {
        "username": "postgres",
        "password": "1996",
        "database": "garson_postgres_production",
        "host": "localhost",
        "dialect": "postgres"
    }
}
